<svg width="40" height="40" viewBox="0 0 40 40" fill="none" xmlns="http://www.w3.org/2000/svg">
<g clip-path="url(#clip0)">
<path d="M8.68428 6.84207H11.8422C11.9875 6.84207 12.1053 6.72421 12.1053 6.57894V0.263133C12.1053 0.117765 11.9875 0 11.8422 0H8.68428C8.53891 0 8.42114 0.117866 8.42114 0.263133V6.57894C8.42114 6.72431 8.53891 6.84207 8.68428 6.84207Z" fill="#C4C4C4"/>
<path d="M37.0527 4.73682H33.158V6.42099C33.158 7.42104 32.4212 8.42099 31.4211 8.42099H28.3159C27.2443 8.34503 26.3919 7.49256 26.3159 6.42099V4.73682H13.6843V6.42099C13.6083 7.49256 12.7559 8.34503 11.6843 8.42099H8.57897C7.57893 8.42099 6.84211 7.42094 6.84211 6.42099V4.73682H2.9474C1.60181 4.76553 0.526004 5.8647 0.526306 7.21059V13.6843H39.4737V7.21059C39.4741 5.8647 38.3983 4.76553 37.0527 4.73682Z" fill="#C4C4C4"/>
<path d="M28.1579 6.84207H31.3158C31.4612 6.84207 31.5789 6.72421 31.5789 6.57894V0.263133C31.5789 0.117765 31.4611 0 31.3158 0H28.1579C28.0125 0 27.8948 0.117866 27.8948 0.263133V6.57894C27.8948 6.72431 28.0125 6.84207 28.1579 6.84207Z" fill="#C4C4C4"/>
<path d="M16.0527 29.3685L15.3158 33.6316L19.1053 31.6316L19.4737 31.5263L19.8421 31.6316L23.6315 33.6316L22.8947 29.3685C22.8666 29.1211 22.9429 28.8731 23.1053 28.6843L26.2106 25.7369L21.9475 25.1054C21.6982 25.0656 21.4832 24.9091 21.3685 24.6843L19.4738 20.8421L17.5791 24.6843C17.4644 24.9091 17.2494 25.0656 17.0001 25.1054L12.737 25.7369L15.8423 28.6843C16.0045 28.873 16.0808 29.121 16.0527 29.3685Z" fill="#C4C4C4"/>
<path d="M0.526306 37.6316C0.554916 38.9481 1.63052 40.0003 2.9474 40H37.0527C38.3695 40.0003 39.4451 38.9481 39.4738 37.6316V15.2632H0.526306V37.6316ZM10.3158 24.9474C10.3999 24.6599 10.6495 24.4519 10.9474 24.4211L16.3684 23.5791L18.7895 18.6843C19.007 18.3064 19.4897 18.1765 19.8676 18.394C19.9883 18.4635 20.0884 18.5636 20.1579 18.6843L22.579 23.5791L28.0001 24.4211C28.298 24.4519 28.5477 24.66 28.6316 24.9474C28.7271 25.229 28.6441 25.5403 28.4211 25.7369L24.5263 29.5264L25.4737 34.9474C25.5103 35.2322 25.3893 35.5143 25.1579 35.6842C25.0196 35.7835 24.8545 35.8385 24.6842 35.8421C24.5525 35.8545 24.421 35.817 24.3158 35.7368L19.4737 33.2104L14.6316 35.7368C14.3677 35.8976 14.0314 35.8766 13.7896 35.6842C13.5582 35.5142 13.4373 35.2321 13.4737 34.9474L14.4211 29.5264L10.5264 25.7369C10.3033 25.5403 10.2203 25.2289 10.3158 24.9474Z" fill="#C4C4C4"/>
</g>
<defs>
<clipPath id="clip0">
<rect width="40" height="40" fill="white"/>
</clipPath>
</defs>
</svg>
